{
    "name": "Card",
    "plural": "cards",
    "base": "PersistedModel",
    "idInjection": true,
    "options": {
        "validateUpsert": true
    },
    "properties": {
        "cardTotalSum": {
            "type": "number",
            "required": true
        }
    },
    "validations": [],
    "relations": {
        "cardsItems": {
            "type": "hasMany",
            "model": "CardItem",
            "foreignKey": "cardId",
            "options": {
                "nestRemoting": true
            }
        },
        "user": {
            "type": "belongsTo",
            "model": "user",
            "foreignKey": "userId",
            "options": {
                "nestRemoting": true
            }
        }
    },
    "acls": [],
    "methods": {}
}